[
  {
    "name" :"queuegroup",
    "group": {
      "title":"Transfert",
      "queues" :  [
          {"name": "Qama","queueids" : [1,7]},
          {"name": "Planes","queueids" : [171,11]},
          {"name": "Colors","queueids" : [171,11]},
          {"name": "Trains","queueids" : [1,7]}
      ]
    }
  },
  {
    "name" :"ThQueueGroup",
    "group": {
      "title":"Customer support",
      "queues" :  [
        {"name": "RUN 1","queueids" : [3, 6, 7]},
        {"name": "RUN 2","queueids" : [5, 11]},
        {"name": "RUN 3","queueids" : [4, 9]}
      ]
    }
  },
  {
    "name" :"fs",
    "group": {
      "title":"Frais de Santé",
      "queues" :  [
          {"name": "Frais de Santé","queueids" : [1,7]}
      ]
    }
  },
  {
    "name" :"qama",
    "group": {
      "title":"UGPS",
      "queues" :  [
          {"name": "Group1","queueids" : [1]},
          {"name": "Group2","queueids" : [2]},
          {"name": "Group3","queueids" : [3]}
      ]
    }
  },
  {
    "name" :"all",
    "group": {
      "title":"UGPS",
      "queues" :  [
          {"name": "Group1","queueids" : [1,2,3]}
      ]
    }
  }
]
